[
    {
        "id": "sapiens",
        "title": "Sapiens",
        "authors": [
            "Yuval Noah Harari"
        ]
    },
    {
        "id": "homo",
        "title": "Homo deus",
        "authors": [
            "Yuval Noah Harari"
        ]
    },
    {
        "id": "lessons",
        "title": "21 lessons for the 21. century",
        "authors": [
            "Yuval Noah Harari"
        ]
    }
]
